{"meta":{"totalItems":1247,"totalPages":1247,"size":1,"page":1},"data":[{"type":"sourcingLocations","attributes":{"updatedAt":"2023-02-01T10:21:38.557Z"}}]}
