{"meta":{"totalItems":10,"totalPages":10,"size":1,"page":1},"data":[{"type":"tasks","id":"6f9c03a7-870d-44bb-9a24-8e78b3e31643","attributes":{"status":"completed","data":{"filename":"75eabdbd-e299-4718-a3ce-eb5aba25caa8_Excel template for uploading data v7.xlsx","path":"/tmp/csv-uploads/75eabdbd-e299-4718-a3ce-eb5aba25caa8_Excel template for uploading data v7.xlsx"},"errors":[],"logs":[{"warning":"Activated indicators: Deforestation risk, Land use, Climate risk from land use change, Water use, Unsustainable water use"},{"warning":"Activated materials: 01, 0101, 0102, 0103, 0104, 0105, 0106, 07, 0701, 0713, 08, 0802, 0803, 0804, 0805, 09, 0901, 0902, 10, 1001, 1002, 1003, 1005, 1006, 1007, 1008, 12, 1201, 1202, 1203, 1204, 1205, 1206, 1212, 1214, 1511, 17, 1702, 18, 24, 40, 47, 52"},{"warning":"Kashkadarya,Uzbekistan is ambiguous, taking most accurate interpretation."},{"warning":"Invernell, NSW,Australia is ambiguous, taking most accurate interpretation."}],"userId":"bf87cd20-cd40-4b28-8786-3acb71d7aa56"}}]}
